Empirical alts analysis
…
aggregate_df %>%
  group_by(response) %>%
  summarise(total_counts=sum(counts)) %>%
  arrange(-total_counts)

## # A tibble: 899 x 2
##       response total_counts
##          <chr>        <int>
## 1        hated          523
## 2        loved          485
## 3        liked          420
## 4        great          402
## 5       boring          372
## 6          bad          355
## 7     disliked          347
## 8      enjoyed          329
## 9  forgettable          302
## 10        good          287
## # ... with 889 more rows
…
